COVID Outcomes Data Comparison
…
## 34 North Dakota             Unknown           4
## 35 Northern Mariana Islands Unknown          24
## 36 Ohio                     Unknown           1
## 37 Pennsylvania             Unknown           3
## 38 Puerto Rico              Unknown          39
## 39 Rhode Island             Unknown          51
## 40 South Dakota             Unknown           5
## 41 Tennessee                Unknown          21
## 42 Utah                     Unknown          25
## 43 Vermont                  Unknown          29
## 44 Virgin Islands           Unknown          38
## 45 Virginia                 Unknown          17
## 46 Washington               Unknown          14

## # A tibble: 46 x 3
## # Groups:   state [44]
##    state       county        count
##    <chr>       <chr>         <int>
##  1 Missouri    Kansas City      32
##  2 New York    New York City    51
##  3 Alaska      Unknown           2
##  4 Arizona     Unknown          10
##  5 Arkansas    Unknown          32
##  6 California  Unknown          12
##  7 Colorado    Unknown          30
##  8 Connecticut Unknown          22
##  9 Delaware    Unknown          10
## 10 Florida     Unknown          29
## #  with 36 more rows
…
Theres just one early date for Snohomish County in Washington, but otherwise every other entry for NYT is included in the county list and date range for JH.

# Check what's in JH, but not NYT. Only include entries with at least one case or death in the JH data. Only go up to two days ago because these datasets get updated at different times. 

print(anti_join(jh %>% filter(cases+deaths >0), nyt, by = c("FIPS" = "fips", "date")) %>%
        group_by(full_name) %>% 
        filter(date < as.Date(Sys.Date()-1)) %>%
        summarise(count = n(), cases = sum(cases), deaths = sum(deaths)) %>%
        arrange(desc(cases)))

## # A tibble: 383 x 4
##    full_name                    count cases deaths
##    <chr>                        <int> <dbl>  <dbl>
##  1 Providence, Rhode Island, US    24   410      0
##  2 San Benito, California, US      39    78      0
##  3 Bristol, Rhode Island, US        4    66      0
##  4 King, Washington, US            37    37      0
##  5 Washington, Rhode Island, US     4    35      0
##  6 Newport, Rhode Island, US        4    34      0
##  7 Reeves, Texas, US               20    28      0
##  8 Calaveras, California, US       13    26      0
##  9 Jackson, North Carolina, US     15    26      0
## 10 Kent, Rhode Island, US           4    25      0
## #  with 373 more rows
…
This is generally a function of the underlying unadjusted data, not something having to with the adjustment process.

Differences by county

# Check which counties have the most instances of a discrepancy between JH and NYT deaths data.  
df_diff_county %>% 
  arrange(desc(count_deaths_adj)) %>%
  select(FIPS, state, full_name, count_deaths_adj, sum_deaths_adj, max_deaths_adj)

## # A tibble: 3,143 x 6
## # Groups:   FIPS, full_name, state [3,143]
##    FIPS  state    full_name       count_deaths_adj sum_deaths_adj max_deaths_adj
##    <chr> <chr>    <chr>                      <int>          <dbl>          <dbl>
##  1 53033 Washing King, Washingt               49           8.52          0    
##  2 53025 Washing Grant, Washing               43          55.3           2.05 
##  3 46035 South D Davison, South               42         212.            0    
##  4 46103 South D Pennington, So               41          36.0           0.879
##  5 53061 Washing Snohomish, Was               38           5.84          0.243
##  6 06085 Califor Santa Clara, C               35           2.39          0    
##  7 51095 Virginia James City, Vi               35          45.7           0    
##  8 53007 Washing Chelan, Washin               32          41.5           0    
##  9 25013 Massach Hampden, Massa               30          43.3           0    
## 10 25025 Massach Suffolk, Massa               30          34.7           6.97 
## #  with 3,133 more rows

It looks like some Washington counties have a lot of discrepancies between the two datasets, then there are a fare number of differences across NY, which makes sense because the case numbers are larger in these places.

# Check which counties have the largest aggregated discrepancy between JH and NYT deaths data.  
df_diff_county %>% 
  arrange(desc(sum_deaths_adj)) %>%
  select(FIPS, state, full_name, count_deaths_adj, sum_deaths_adj, max_deaths_adj)

## # A tibble: 3,143 x 6
## # Groups:   FIPS, full_name, state [3,143]
##    FIPS  state    full_name       count_deaths_adj sum_deaths_adj max_deaths_adj
##    <chr> <chr>    <chr>                      <int>          <dbl>          <dbl>
##  1 36061 New York New York City,               27           421.          81.7 
##  2 36059 New York Nassau, New Yo               29           308.           0   
##  3 36087 New York Rockland, New                27           283.          30.7 
##  4 36079 New York Putnam, New Yo               18           266.           7.12
##  5 46035 South D Davison, South               42           212.           0   
##  6 31041 Nebraska Custer, Nebras               15           204.           0   
##  7 13273 Georgia  Terrell, Georg                7           176.           0   
##  8 21143 Kentucky Lyon, Kentucky                7           171.           0   
##  9 36071 New York Orange, New Yo               26           167.          17.4 
## 10 13007 Georgia  Baker, Georgia                5           165.           0   
## #  with 3,133 more rows
…
Anecdotally, these still track each other reasonably well except for the large discrepancy in NYC. Maybe JH is allocating more deaths to the city and NYT is allocating more to surrounding counties?

Run the same process for case counts.

# Check which counties have the most instances of a discrepancy between JH and NYT cases data.  
df_diff_county %>% 
  arrange(desc(count_cases_adj)) %>%
  select(FIPS, state, full_name, count_cases_adj, sum_cases_adj, max_cases_adj)

## # A tibble: 3,143 x 6
## # Groups:   FIPS, full_name, state [3,143]
##    FIPS  state    full_name          count_cases_adj sum_cases_adj max_cases_adj
##    <chr> <chr>    <chr>                        <int>         <dbl>         <dbl>
##  1 53033 Washing King, Washington,              87          79.4        3.02  
##  2 53061 Washing Snohomish, Washin              83          56.9        5.35  
##  3 06075 Califor San Francisco, Ca              71          22.6        0     
##  4 06073 Califor San Diego, Califo              67          70.4        0.0599
##  5 31055 Nebraska Douglas, Nebraska              64         181.         0     
##  6 48029 Texas    Bexar, Texas, US                63          58.6        0.599 
##  7 06069 Califor San Benito, Calif              60         207.         4.78  
##  8 06095 Califor Solano, Californi              57         116.         0     
##  9 06055 Califor Napa, California,              52          51.5        0     
## 10 06001 Califor Alameda, Californ              50          66.8        0     
## #  with 3,133 more rows

# Check which counties have the largest aggregated discrepancy between JH and NYT cases data.  
df_diff_county %>% 
  arrange(desc(sum_cases_adj)) %>%
  select(FIPS, state, full_name, count_cases_adj, sum_cases_adj, max_cases_adj)

## # A tibble: 3,143 x 6
## # Groups:   FIPS, full_name, state [3,143]
##    FIPS  state    full_name          count_cases_adj sum_cases_adj max_cases_adj
##    <chr> <chr>    <chr>                        <int>         <dbl>         <dbl>
##  1 25019 Massach Nantucket, Massac              31         1798.          0   
##  2 16013 Idaho    Blaine, Idaho, US               30         1551.         60.8 
##  3 25007 Massach Dukes and Nantuck              31         1264.         57.7 
##  4 36079 New York Putnam, New York,              22         1089.        189.  
##  5 49029 Utah     Morgan, Utah, US                26         1031.          0   
##  6 31107 Nebraska Knox, Nebraska, US              41          888.         24.0 
##  7 21031 Kentucky Butler, Kentucky,              12          862.          0   
##  8 31079 Nebraska Hall, Nebraska, US              17          802.          0   
##  9 13099 Georgia  Early, Georgia, US              20          756.          9.81
## 10 36071 New York Orange, New York,              16          753.        112.  
## #  with 3,133 more rows
…
